///Mikayel Ghaziyan
///11/10/2017
///Exercise 2.15


a) 3 * 6 = 18
   18 / 2 =9
   7 + 9 = 16
   16 - 1 = 15
   x = 15

b) 2 % 2 = 0
   2 * 2 = 4
   2 / 2 = 1
   0 + 4 = 4 
   4 - 1 = 3
   x = 3

c) 9 * 3 = 27
   27 / 3 = 9
   3 + 9 = 12
   3 * 9 = 27
   27 * 12 = 324
   x = 324
    



